{
  "name": "blockchain",
  "version": "1.0.0",
  "description": "ejemplo de blockchain",
  "main": "main.js",
  "scripts": {
    "test": "echo \"Error: no test specified\" && exit 1",
    "start": "node main.js"
  },
  "keywords": [
    "blockchain",
    "uach",
    "demo"
  ],
  "author": "Marcela sigala",
  "license": "ISC",
  "dependencies": {
    "crypto-js": "^4.1.1"
  }
}
